…
ℹ Use `spec()` to retrieve the full column specification for this data.
ℹ Specify the column types or set `show_col_types = FALSE` to quiet this message.
> 
> 
> ################################################################################
> ## Clean data
> 
> hiring_edges.data %>% head(100)
# A tibble: 100 × 9
   Total Women   Men DegreeInstitutionId DegreeInstitutionName     InstitutionId
   <dbl> <dbl> <dbl>               <dbl> <chr>                             <dbl>
 1     3     2     1                   1 Adelphi University                   49
 2     8     7     1                   1 Adelphi University                  205
 3    65     4    59                   2 Air Force Institute of T…             2
 4     2     1     1                   2 Air Force Institute of T…            71
 5    12     4     4                   3 Alabama A&M University                3
 6     2     1     1                   4 Albany Medical College                5
 7     2     1     1                   4 Albany Medical College              102
 8     3     1     2                   4 Albany Medical College              128
 9     4     1     3                   4 Albany Medical College              239
10     3     2     1                   4 Albany Medical College              202
# … with 90 more rows, and 3 more variables: InstitutionName <chr>,
#   TaxonomyValue <chr>, TaxonomyLevel <chr>
…
Ncells 1078545 57.7    2330915 124.5  1520568  81.3
Vcells 6908936 52.8   23126925 176.5 23841116 181.9
> 
> # Get the connecting variables for IPEDs: unitid, college name
> ipeds.key <- ipeds.data %>%
+     #mutate(inst_name = str_sub(inst_name, end = 30)) %>%
+     group_by(unitid, inst_name) %>%
+     summarise(count = n()) %>%
+     ungroup() %>%
+     select(unitid, inst_name)
`summarise()` has grouped output by 'unitid'. You can override using the
`.groups` argument.
> 
> ipeds.key %>% arrange(unitid, inst_name)
# A tibble: 12,820 × 2
   unitid inst_name                          
    <dbl> <chr>                              
 1 100636 Community College of the Air Force 
 2 100654 Alabama A & M University           
 3 100663 University of Alabama at Birmingham
 4 100690 Amridge University                 
 5 100706 University of Alabama at Huntsville
 6 100706 University of Alabama in Huntsville
 7 100724 Alabama State University           
 8 100733 University of Alabama System Office
 9 100751 The University of Alabama          
10 100760 Central Alabama Community College  
# … with 12,810 more rows
> hiring.data %>% arrange(inst_id, inst_name)
# A tibble: 355 × 5
   inst_id inst_name                           men_hired women_hired total_hired
     <dbl> <chr>                                   <dbl>       <dbl>       <dbl>
 1       2 Air Force Institute of Technology         167          26         197
 2       3 Alabama A&M University                     27          30          81
 3       5 Albert Einstein College of Medicin…       265         176         472
 4       6 Alfred University                           8           4          12
 5       7 Alliant International University           84          88         190
 6       8 American University                       268         189         469
 7       9 Andrews University                         96          35         137
 8      12 Arizona State University                 2281        1436        4122
 9      13 Arkansas State University                   4           4           8
10      15 Auburn University                        1076         738        2016
# … with 345 more rows
…
